Introduction to {altcheckr} functions • altcheckr
…
Here is a preview of the tibble that is output from alt_get():

print(get_img)
#> # A tibble: 104 x 2
#>    src                                    alt                                   
#>    <chr>                                  <chr>                                 
#>  1 https://a1.api.bbc.co.uk/hit.xiti?&co… ""                                    
#>  2 https://ichef.bbci.co.uk/news/320/cps… Tourist take pictures of the White Is…
#>  3 data:image/gif;base64,R0lGODlhAQABAIA… Jack                                  
#>  4 data:image/gif;base64,R0lGODlhAQABAIA… Joseph McCann                         
#>  5 https://ichef.bbci.co.uk/news/320/cps… Undecided voters and election issues …
#>  6 data:image/gif;base64,R0lGODlhAQABAIA… Shante Turay-Thomas                   
#>  7 data:image/gif;base64,R0lGODlhAQABAIA… Anton and Emma in Strictly 2019       
#>  8 data:image/gif;base64,R0lGODlhAQABAIA… Anton and Emma in Strictly 2019       
#>  9 data:image/gif;base64,R0lGODlhAQABAIA… Taron Egerton in Rocketman, Phoebe Wa…
#> 10 data:image/gif;base64,R0lGODlhAQABAIA… A Russian flag is waved in front of t…
#> # … with 94 more rows

Check alt text

You can then pass the output of alt_get() to alt_check() to perform a series of basic assessments of each image’s alt text.

(You can also pass any data frame that contains a src and alt column, where alt contains the text to be assessed by alt_check(). For example, {altcheckr} has a built-in dataset: example_get.)

check_img <- alt_check(get_img)

This will return the same tibble as alt_get(), but new columns have now been appended.

Each new column is the outcome of a check for a possible accessibility issue with the alt text. For example, whether the alt text actually exists and whether it is long.

print(check_img)
#> # A tibble: 104 x 10
#>    src   alt   alt_exists nchar_count nchar_assess file_ext self_evident
#>    <chr> <chr> <chr>            <int> <chr>        <lgl>    <lgl>       
#>  1 http… ""    Empty               NA <NA>         NA       NA          
#>  2 http… Tour… Exists              50 OK           FALSE    TRUE        
#>  3 data… Jack  Exists               4 Short        FALSE    FALSE       
#>  4 data… Jose… Exists              13 Short        FALSE    FALSE       
#>  5 http… Unde… Exists              49 OK           FALSE    FALSE       
#>  6 data… Shan… Exists              19 Short        FALSE    FALSE       
#>  7 data… Anto… Exists              31 OK           FALSE    FALSE       
#>  8 data… Anto… Exists              31 OK           FALSE    FALSE       
#>  9 data… Taro… Exists              90 OK           FALSE    FALSE       
#> 10 data… A Ru… Exists              73 OK           FALSE    FALSE       
#> # … with 94 more rows, and 3 more variables: terminal_punct <lgl>,
#> #   spellcheck <list>, not_basic <list>
…
