Introduction to {altcheckr} functions • altcheckr
…
Here is a preview of the tibble that is output from alt_get():

print(get_img)
#> # A tibble: 54 x 2
#>    src                                    alt                                   
#>    <chr>                                  <chr>                                 
#>  1 https://a1.api.bbc.co.uk/hit.xiti?&co… ""                                    
#>  2 https://ichef.bbci.co.uk/news/null/cp… "US Postal Service worker pushes a ma…
#>  3 data:image/gif;base64,R0lGODlhAQABAIA… "Belarussian President Alexander Luka…
#>  4 data:image/gif;base64,R0lGODlhAQABAIA… "School pupils socially distance"     
#>  5 data:image/gif;base64,R0lGODlhAQABAIA… "Chinese-owned TikTok video app has a…
#>  6 data:image/gif;base64,R0lGODlhAQABAIA… "Fire-fighters are working 72-hour sh…
#>  7 data:image/gif;base64,R0lGODlhAQABAIA… "Emergency staff outside the club in …
#>  8 data:image/gif;base64,R0lGODlhAQABAIA… "Crowds of young people"              
#>  9 data:image/gif;base64,R0lGODlhAQABAIA… "Flowers in Christchurch after the sh…
#> 10 data:image/gif;base64,R0lGODlhAQABAIA… "File picture of Miroslava Breach"    
#> # … with 44 more rows

Check alt text

You can then pass the output of alt_get() to alt_check() to perform a series of basic assessments of each image’s alt text.

(You can also pass any data frame that contains a src and alt column, where alt contains the text to be assessed by alt_check(). For example, {altcheckr} has a built-in dataset: example_get.)

check_img <- alt_check(get_img)

This will return the same tibble as alt_get(), but new columns have now been appended.

Each new column is the outcome of a check for a possible accessibility issue with the alt text. For example, whether the alt text actually exists and whether it is long.

print(check_img)
#> # A tibble: 54 x 10
#>    src   alt   alt_exists nchar_count nchar_assess file_ext self_evident
#>    <chr> <chr> <chr>            <int> <chr>        <lgl>    <lgl>       
#>  1 http… ""    Empty               NA <NA>         NA       NA          
#>  2 http… "US … Exists             104 OK           FALSE    FALSE       
#>  3 data… "Bel… Exists              84 OK           FALSE    FALSE       
#>  4 data… "Sch… Exists              31 OK           FALSE    FALSE       
#>  5 data… "Chi… Exists              69 OK           FALSE    FALSE       
#>  6 data… "Fir… Exists              86 OK           FALSE    FALSE       
#>  7 data… "Eme… Exists              40 OK           FALSE    FALSE       
#>  8 data… "Cro… Exists              22 OK           FALSE    FALSE       
#>  9 data… "Flo… Exists              56 OK           FALSE    FALSE       
#> 10 data… "Fil… Exists              32 OK           FALSE    TRUE        
#> # … with 44 more rows, and 3 more variables: terminal_punct <lgl>,
#> #   spellcheck <list>, not_basic <list>
…
